…
as.data.frame(Groups.sfdfT) %>%
  count(Month, nD) %>%
  mutate(prop = prop.table(n))

## # A tibble: 48 x 4
##    Month    nD     n    prop
##    <int> <int> <int>   <dbl>
##  1     1     1     1 0.00505
##  2     1     2     3 0.0152 
##  3     1     3     3 0.0152 
##  4     2     2     5 0.0253 
##  5     2     3     3 0.0152 
##  6     2     5     1 0.00505
##  7     3     2     4 0.0202 
##  8     3     3     3 0.0152 
##  9     3     4     1 0.00505
## 10     3     5     1 0.00505
## # ... with 38 more rows
…
Top 10 biggest tornado days within the largest groups.

BigDaysInLargeGroups.sfdfT %>%
  top_n(n = 10, nT) %>%
  arrange(desc(nT))

## Simple feature collection with 399 features and 11 fields
## geometry type:  MULTIPOINT
## dimension:      XY
## bbox:           xmin: -1932981 ymin: -1348247 xmax: 2011477 ymax: 1117908
## epsg (SRID):    102004
## proj4string:    +proj=lcc +lat_1=33 +lat_2=45 +lat_0=39 +lon_0=-96 +x_0=0 +y_0=0 +datum=NAD83 +units=m +no_defs
## # A tibble: 399 x 12
## # Groups:   groupNumber [198]
##    groupNumber cDate         nT GroupDayTotalED GroupDayMaxED
##          <int> <date>     <int>           <dbl>         <dbl>
##  1        3466 2011-04-27   164         2.20e14       3.85e13
##  2        3466 2011-04-26   121         4.70e13       1.27e13
##  3        1116 1999-01-21   100         1.21e13       1.63e12
##  4        2000 2003-06-24    95         2.91e12       1.13e12
##  5        1954 2003-05-04    91         3.13e13       7.56e12
##  6        2767 2007-05-05    90         8.46e12       1.80e12
##  7        2319 2004-11-23    88         1.58e13       5.23e12
##  8        2155 2004-05-30    87         2.19e12       6.00e11
##  9        2930 2008-02-05    86         4.18e13       1.82e13
## 10        3646 2012-04-14    85         3.27e13       1.05e13
## # ... with 389 more rows, and 7 more variables: GroupDayMeanED <dbl>,
## #   cDate1 <date>, Year <dbl>, Mo <dbl>, Month <chr>, Day <chr>,
## #   geometry <MULTIPOINT [m]>
…
